{
  "name": "pf2e-magaambya-expanded",
  "title": "PF2e - Magaambya Expanded",
  "description": "Running Strength Of Thousands and find your players wanting to explore the school a bit more?\n\nAll maps are walled and lit. All maps are webp files to minimise file sizes. \n\nMaps will be added as necessary.\n\n",
  "version": "0.1.0",
  "minimumCoreVersion": "9",
  "compatibleCoreVersion": "9",
  "authors": [
    {
      "name": "Vindico",
      "discord": "Vindico#9013"
    }
  ],
  "packs": [
    {
      "name": "maps",
      "label": "PF2e - Magaambya Expanded",
      "path": "/packs/maps.db",
      "entity": "Scene"
    },
    {
      "name": "journals",
      "label": "PF2e - Magaambya Expanded",
      "path": "/packs/journals.db",
      "entity": "JournalEntry"
    }
  ],
  "url": "https://gitlab.com/pf2e-foundry-content/pf2e-magaambya-expanded",
  "manifest": "https://gitlab.com/pf2e-foundry-content/pf2e-magaambya-expanded/-/raw/main/module.json",
  "download": "https://gitlab.com/pf2e-foundry-content/pf2e-magaambya-expanded/-/archive/0.1.0/pf2e-magaambya-expanded-0.1.0.zip",
  "manifestPlusVersion": "1.2.0"
}
